<?xml version="1.0" encoding="UTF-8" standalone="no"?>
<svg
   xmlns:dc="http://purl.org/dc/elements/1.1/"
   xmlns:cc="http://creativecommons.org/ns#"
   xmlns:rdf="http://www.w3.org/1999/02/22-rdf-syntax-ns#"
   xmlns:svg="http://www.w3.org/2000/svg"
   xmlns="http://www.w3.org/2000/svg"
   xmlns:sodipodi="http://sodipodi.sourceforge.net/DTD/sodipodi-0.dtd"
   xmlns:inkscape="http://www.inkscape.org/namespaces/inkscape"
   id="Capa_1"
   enable-background="new 0 0 512 512"
   height="512"
   viewBox="0 0 512 512"
   width="512"
   version="1.1"
   sodipodi:docname="payment-stop.svg"
   inkscape:version="0.92.3 (2405546, 2018-03-11)">
  <metadata
     id="metadata61">
    <rdf:RDF>
      <cc:Work
         rdf:about="">
        <dc:format>image/svg+xml</dc:format>
        <dc:type
           rdf:resource="http://purl.org/dc/dcmitype/StillImage" />
      </cc:Work>
    </rdf:RDF>
  </metadata>
  <defs
     id="defs59" />
  <sodipodi:namedview
     pagecolor="#ffffff"
     bordercolor="#666666"
     borderopacity="1"
     objecttolerance="10"
     gridtolerance="10"
     guidetolerance="10"
     inkscape:pageopacity="0"
     inkscape:pageshadow="2"
     inkscape:window-width="1288"
     inkscape:window-height="912"
     id="namedview57"
     showgrid="false"
     inkscape:zoom="0.5"
     inkscape:cx="-335.64696"
     inkscape:cy="-21.033442"
     inkscape:window-x="51"
     inkscape:window-y="27"
     inkscape:window-maximized="0"
     inkscape:current-layer="Capa_1" />
  <g
     id="g4735"
     style="fill:#7e3aa6;fill-opacity:1">
    <g
       id="g4730"
       style="fill:#7e3aa6;fill-opacity:1">
      <path
         style="fill:#7e3aa6;fill-opacity:1"
         inkscape:connector-curvature="0"
         id="path2"
         d="M 256.522,496.333 352.876,468.54 C 414.489,420.175 454.078,345.03 454.078,260.625 454.078,130.906 360.589,23.037 237.317,0.682 104.655,10.253 0,120.9 0,256 0,327.244 28.569,391.165 75.536,437.573 l 10.563,9.899 z" />
    </g>
    <path
       d="M 256,0 C 244.976,0 234.114,0.698 223.457,2.05 349.476,18.038 446.914,125.64 446.914,256 c 0,95.61 -52.415,178.974 -130.076,222.935 L 425.896,447.477 C 478.709,400.582 512,332.184 512,256 512,114.615 397.385,0 256,0 Z"
       id="path6"
       inkscape:connector-curvature="0"
       style="fill:#7e3aa6;fill-opacity:1" />
  </g>
  <g
     id="g4800"
     style="fill:#324a5e;fill-opacity:1">
    <path
       style="fill:#324a5e;fill-opacity:1"
       inkscape:connector-curvature="0"
       id="path10"
       d="m 334.886,306.987 c 17.039,-9.992 27.503,-28.275 27.497,-48.027 -0.019,-56.872 -0.028,-87.988 -0.028,-87.988 0,-58.738 -47.616,-106.354 -106.354,-106.354 -58.738,0 -106.354,47.616 -106.354,106.354 0,0 -0.009,31.117 -0.028,87.988 -0.007,19.752 10.458,38.035 27.497,48.027 l 11.997,7.036 c 20.284,11.896 43.374,18.167 66.889,18.167 23.515,0 46.605,-6.271 66.889,-18.167 z" />
    <path
       d="m 362.354,170.972 c 0,-44.092 -26.832,-81.916 -65.058,-98.038 v 252.623 c 8.877,-2.919 17.463,-6.766 25.592,-11.534 l 11.997,-7.036 c 17.039,-9.992 27.503,-28.275 27.497,-48.027 -0.018,-56.872 -0.028,-87.988 -0.028,-87.988 z"
       id="path12"
       inkscape:connector-curvature="0"
       style="fill:#324a5e;fill-opacity:1" />
  </g>
  <path
     style="fill:#ffd05b;fill-opacity:1"
     inkscape:connector-curvature="0"
     id="path16"
     d="m 256,418.104 67.48,-47.486 -27.239,-32.992 v -75.207 h -80.482 v 75.207 l -27.239,32.992 z" />
  <g
     id="g4813"
     style="fill:#324a5e;fill-opacity:1">
    <g
       id="g4808"
       style="fill:#324a5e;fill-opacity:1">
      <path
         d="m 387.573,355.203 -74.522,-14.342 c -11.766,19.162 -32.916,31.943 -57.051,31.943 -24.135,0 -45.285,-12.781 -57.051,-31.943 l -74.522,14.342 c -28.38,5.462 -48.89,30.296 -48.89,59.196 v 23.174 c 39.91,39.667 92.827,66.253 151.788,72.824 4.422,0.493 8.897,0.222 13.242,-0.736 l 18.955,-4.18 c 4.498,-0.992 9.167,-0.903 13.624,0.26 6.184,1.613 12.728,1.149 18.624,-1.318 58.042,-24.285 105.575,-68.671 133.875,-124.479 -8.737,-12.533 -22.168,-21.68 -38.072,-24.741 z"
         id="path20"
         inkscape:connector-curvature="0"
         style="fill:#324a5e;fill-opacity:1" />
    </g>
    <path
       style="fill:#324a5e;fill-opacity:1"
       inkscape:connector-curvature="0"
       id="path22"
       d="m 436.463,414.399 c 0,-16.318 -6.541,-31.337 -17.343,-42.307 -37.636,73.834 -110.035,126.985 -195.638,137.854 10.375,1.315 20.942,2.017 31.666,2.052 h 0.026 c 0.333,0.001 1.179,0.002 1.65,0 h 0.026 c 70.073,-0.228 133.516,-28.61 179.612,-74.425 v -23.174 z" />
  </g>
  <g
     id="g4817"
     style="fill:#8c3bbd;fill-opacity:1">
    <path
       style="fill:#8c3bbd;fill-opacity:1"
       inkscape:connector-curvature="0"
       id="path24"
       d="m 261.178,505.117 c 9.536,-27.607 29.332,-90.05 34.041,-145.019 -11.02,7.989 -24.567,12.706 -39.219,12.706 -14.652,0 -28.199,-4.717 -39.219,-12.706 4.833,56.421 25.564,120.725 34.777,147.14 z" />
    <path
       style="fill:#8c3bbd;fill-opacity:1"
       inkscape:connector-curvature="0"
       id="path26"
       d="m 250.768,504.961 c 0.921,2.667 1.749,5.02 2.458,7.007 5.249,0.055 3.424,0.022 5.548,0 0.968,-2.711 2.155,-6.098 3.502,-10.051 -3.801,1.102 -7.637,2.117 -11.508,3.044 z" />
  </g>
  <path
     d="m 327.324,163.855 c -28.418,-30.607 -33.694,-58.413 -33.694,-58.413 -14.116,37.04 -49.967,63.355 -91.964,63.355 -1.285,0 -2.564,-0.025 -3.837,-0.073 -9.664,-0.371 -17.69,7.375 -17.69,17.046 v 31.07 c 0.625,41.373 34.338,74.725 75.861,74.725 41.522,0 75.235,-33.351 75.861,-74.725 v -41.405 c 0,-4.292 -1.617,-8.435 -4.537,-11.58 z"
     id="path28"
     inkscape:connector-curvature="0"
     style="fill:#ffd05b;fill-opacity:1" />
  <path
     style="fill:#000000;fill-opacity:1"
     inkscape:connector-curvature="0"
     id="path36"
     d="m 171.879,343.452 c -3.239,1.985 -3.883,6.423 -1.341,9.246 l 15.779,17.527 c 2.256,2.506 2.04,6.369 -0.48,8.608 l -10.404,9.244 c -2.185,1.941 -3.265,4.873 -2.75,7.749 5.813,32.476 57.771,94.503 76.568,116.09 1.325,0.032 2.652,0.055 3.982,0.069 -9.093,-25.471 -37.475,-110.116 -37.475,-174.36 v -21.064 z" />
  <path
     style="fill:#000000;fill-opacity:1"
     inkscape:connector-curvature="0"
     id="path38"
     d="m 340.121,343.452 -43.878,-26.89 v 21.064 c 0,64.244 -28.382,148.889 -37.475,174.36 1.33,-0.013 2.657,-0.036 3.982,-0.069 18.797,-21.587 70.755,-83.614 76.568,-116.09 0.515,-2.877 -0.566,-5.808 -2.75,-7.749 l -10.404,-9.244 c -2.521,-2.239 -2.736,-6.102 -0.48,-8.608 l 15.779,-17.527 c 2.541,-2.824 1.897,-7.262 -1.342,-9.247 z" />
  <path
     style="fill:#ffd05b;fill-opacity:1"
     inkscape:connector-curvature="0"
     id="path44"
     d="M 343.362,175.56 H 331.86 v 38 h 11.502 c 10.496,0 19.003,-8.51 19,-19.006 -0.003,-10.49 -8.509,-18.994 -19,-18.994 z" />
</svg>
